…
``` r
bci_env_grid %>% tibble
```

    ## # A tibble: 50 x 1
    ##     .$id $categoria_de_e… $geologia $habitat $quebrada $heterogeneidad…
    ##    <dbl> <fct>            <fct>     <fct>    <fct>                <dbl>
    ##  1     1 c3               Tb        OldSlope Yes                 0.627 
    ##  2     2 c3               Tb        OldLow   Yes                 0.394 
    ##  3     3 c3               Tb        OldLow   No                  0     
    ##  4     4 c3               Tb        OldLow   No                  0     
    ##  5     5 c3               Tb        OldSlope No                  0.461 
    ##  6     6 c3               Tb        OldLow   No                  0.0768
    ##  7     7 c3               Tb        OldLow   Yes                 0.381 
    ##  8     8 c3               Tb        OldLow   Yes                 0.211 
    ##  9     9 c3               Tb        OldLow   No                  0     
    ## 10    10 c3               Tb        OldLow   No                  0     
    ## # … with 40 more rows, and 33 more variables: $UTM.EW <dbl>,
    ## #   $UTM.NS <dbl>, $geomorf_llanura_pct <dbl>, $geomorf_pico_pct <dbl>,
    ## #   $geomorf_interfluvio_pct <dbl>, $geomorf_hombrera_pct <dbl>,
    ## #   $`geomorf_espolón/gajo_pct` <dbl>, $geomorf_vertiente_pct <dbl>,
    ## #   $geomorf_vaguada_pct <dbl>, $geomorf_piedemonte_pct <dbl>,
    ## #   $geomorf_valle_pct <dbl>, $geomorf_sima_pct <dbl>, $Al <dbl>,
    ## #   $B <dbl>, $Ca <dbl>, $Cu <dbl>, $Fe <dbl>, $K <dbl>, $Mg <dbl>,
    ## #   $Mn <dbl>, $P <dbl>, $Zn <dbl>, $N <dbl>, $N.min. <dbl>, $pH <dbl>,
    ## #   $elevacion_media <dbl>, $pendiente_media <dbl>,
…
Dado que se requiere que las variables de entrada sean exclusivamente numéricas, el primer paso que realizaré será obtener un conjunto de columnas numéricas y, de éstas, seleccionaré sólo las de suelo.

¡IMPORTANTE! Haré esta demostración sólo con las variables de suelo, **pero puedes (y debes) ordenar los sitios en función de otras variables, por ejemplo, las geomorfológicas combinadas con la de hábitat y la de heterogeneidad ambiental**. Por tal razón, haz también el PCA para las demás variables de la matriz ambiental.

A partir de los datos de suelo, la función `rda`, de `vegan` realizará los siguientes pasos: escalar las variables originales, calcular matriz de correlaciones y obtener vectores propios para el PCA.

``` r
env_suelo <- bci_env_grid %>%
  st_drop_geometry %>%
  dplyr::select(matches('^[A-T,Z]|^pH$', ignore.case = F))
env_suelo %>% tibble
```

    ## # A tibble: 50 x 1
    ##     .$Al    $B   $Ca   $Cu   $Fe    $K   $Mg   $Mn    $P   $Zn    $N
    ##    <dbl> <dbl> <dbl> <dbl> <dbl> <dbl> <dbl> <dbl> <dbl> <dbl> <dbl>
    ##  1  901. 0.794 1680.  6.20  135. 142.   279.  267.  1.95  2.97  18.5
    ##  2  954. 0.670 1503.  6.03  142. 137.   280.  320.  2.25  2.53  21.6
    ##  3 1114. 0.595 1182.  6.80  157.  98.7  230.  445.  1.95  2.25  20.2
    ##  4 1024. 0.568 1558.  6.63  153.  98.4  229.  408.  2.63  2.44  20.8
    ##  5 1002. 0.399 1242.  6.44  149.  94.1  203.  251.  1.86  2.14  16.9
    ##  6 1091. 0.731 1442.  6.50  174. 132.   277.  477.  1.62  2.63  20.3
    ##  7 1184. 0.340 1111.  5.55  138. 117.   242.  301.  2.13  2.16  20.1
    ##  8 1256. 0.322 1029.  6.28  147. 104.   185.  204.  3.11  2.07  21.5
    ##  9 1122. 0.464 1230.  7.18  153. 110.   207.  415.  1.99  2.33  21.4
    ## 10 1172. 0.314 1127.  6.89  133. 105.   172.  330.  1.69  2.05  18.3
    ## # … with 40 more rows, and 2 more variables: $N.min. <dbl>, $pH <dbl>
…
Esto podría significar que las tendencias/patrones de mi matriz de comunidad (cuadros de 1 Ha de BCI según composición), no se asocian/no son consistentes con variables de suelo según el PCA. Es probable que, usando una combinación diferente de variables ambientales, se puedan extraer patrones. No recomiendo identificar variables ambientales de forma meramente heurística, porque sería equivalente a pescar; recomiendo construir una matriz ambiental de variables seleccionadas a partir de patrones de dependencia identificados en scripts anteriores. Concretamente, en el script [aa\_analisis\_de\_agrupamiento\_3\_variables\_ambientales\_segun\_grupos.R](aa_analisis_de_agrupamiento_3_variables_ambientales_segun_grupos.R) identifiqué posibles variables asociadas según los distintos agrupamientos realizados. Si fuese tu caso, te recomiendo construir una matriz ambiental con dichas variables y probar la consistencia de los métodos de ordenación y agrupamiento.

#### PCA aplicado a datos de comunidad transformados

``` r
mi_fam_hel <- decostand(mi_fam, method = 'hellinger')
mi_fam_hel %>% tibble
```

    ## # A tibble: 50 x 1
    ##    .$Acaldive $Acalmacr $Adeltril $Alchcost $Alchlati $Crotbill $Hieralch
    ##         <dbl>     <dbl>     <dbl>     <dbl>     <dbl>     <dbl>     <dbl>
    ##  1      0.811     0.310     0         0.310     0         0.388     0    
    ##  2      0.655     0         0         0.378     0         0.378     0.535
    ##  3      0.302     0.174     0.739     0.522     0         0.174     0    
    ##  4      0.240     0.186     0.322     0.577     0         0.661     0.186
    ##  5      0.544     0         0.136     0.360     0         0.694     0.192
    ##  6      0.811     0         0         0.169     0.169     0.478     0    
    ##  7      0.648     0.141     0.141     0.283     0         0.632     0.2  
    ##  8      0.683     0         0         0.447     0         0.516     0    
    ##  9      0.378     0         0.309     0.378     0         0.724     0.309
    ## 10      0.764     0         0         0.577     0         0.289     0    
    ## # … with 40 more rows, and 3 more variables: $Huracrep <dbl>,
    ## #   $Sapibroa <dbl>, $Sapiglan <dbl>
…
